Chapter 6 Applied Stats Model II - Exam 1 | ASM_II_Class_Note
…
## -- Conflicts ------------------------------------------ tidyverse_conflicts() --
## x dplyr::filter() masks stats::filter()
## x dplyr::lag()    masks stats::lag()

Plot_DF <- P6 |>
group_by(y) |>
summarise(count=n()) |> #n() is the summarise function option
mutate(etotal=sum(count), proportion=count/etotal)
Plot_DF

## # A tibble: 451 x 4
##        y count etotal proportion
##    <dbl> <int>  <int>      <dbl>
##  1  0       50    500      0.1  
##  2  1.00     1    500      0.002
##  3  1.00     1    500      0.002
##  4  1.00     1    500      0.002
##  5  1.00     1    500      0.002
##  6  1.01     1    500      0.002
##  7  1.02     1    500      0.002
##  8  1.05     1    500      0.002
##  9  1.05     1    500      0.002
## 10  1.06     1    500      0.002
## # ... with 441 more rows
…
